STATT253 Group Project
…
summary(attrition_allvars) %>% 
  coef() %>% 
  tidy() %>% 
  select(`.rownames`, Estimate) %>% 
  mutate(exp_coef = exp(Estimate))

## # A tibble: 50 x 3
##    .rownames                            Estimate exp_coef
##    <chr>                                   <dbl>    <dbl>
##  1 (Intercept)                        -11.5       9.76e-6
##  2 Age                                 -0.0216    9.79e-1
##  3 BusinessTravelTravel_Frequently      2.18      8.84e+0
##  4 BusinessTravelTravel_Rarely          1.28      3.58e+0
##  5 DailyRate                           -0.000706  9.99e-1
##  6 `DepartmentResearch & Development`  14.4       1.82e+6
##  7 DepartmentSales                     12.3       2.28e+5
##  8 DistanceFromHome                     0.0493    1.05e+0
##  9 Education                           -0.0754    9.27e-1
## 10 `EducationFieldLife Sciences`       -1.64      1.93e-1
## #  with 40 more rows
…
